<?xml version="1.0" encoding="UTF-8" standalone="no"?>
<!-- Created with Inkscape (http://www.inkscape.org/) -->

<svg
   xmlns:osb="http://www.openswatchbook.org/uri/2009/osb"
   xmlns:dc="http://purl.org/dc/elements/1.1/"
   xmlns:cc="http://creativecommons.org/ns#"
   xmlns:rdf="http://www.w3.org/1999/02/22-rdf-syntax-ns#"
   xmlns:svg="http://www.w3.org/2000/svg"
   xmlns="http://www.w3.org/2000/svg"
   xmlns:xlink="http://www.w3.org/1999/xlink"
   xmlns:sodipodi="http://sodipodi.sourceforge.net/DTD/sodipodi-0.dtd"
   xmlns:inkscape="http://www.inkscape.org/namespaces/inkscape"
   width="512"
   height="512"
   viewBox="0 0 135.46666 135.46667"
   version="1.1"
   id="svg8"
   inkscape:version="0.92.3 (2405546, 2018-03-11)"
   sodipodi:docname="logo.svg"
   inkscape:export-filename="/home/zorro/Documents/cours_UTC/OwnShip/computer_science/projets_perso/travel_anecdotes/static/images/logo.png"
   inkscape:export-xdpi="300"
   inkscape:export-ydpi="300"
   enable-background="new">
  <defs
     id="defs2">
    <linearGradient
       inkscape:collect="always"
       id="linearGradient7194">
      <stop
         style="stop-color:#591449;stop-opacity:1;"
         offset="0"
         id="stop7190" />
      <stop
         style="stop-color:#8c212c;stop-opacity:1"
         offset="1"
         id="stop7192" />
    </linearGradient>
    <linearGradient
       inkscape:collect="always"
       id="linearGradient7068">
      <stop
         style="stop-color:#080077;stop-opacity:1;"
         offset="0"
         id="stop7064" />
      <stop
         style="stop-color:#da3500;stop-opacity:1"
         offset="1"
         id="stop7066" />
    </linearGradient>
    <linearGradient
       id="linearGradient5439"
       osb:paint="solid">
      <stop
         style="stop-color:#ff8800;stop-opacity:1;"
         offset="0"
         id="stop5437" />
    </linearGradient>
    <linearGradient
       inkscape:collect="always"
       xlink:href="#linearGradient7068"
       id="linearGradient7070"
       x1="34.858738"
       y1="228.45202"
       x2="98.686586"
       y2="228.45202"
       gradientUnits="userSpaceOnUse" />
    <linearGradient
       inkscape:collect="always"
       xlink:href="#linearGradient7068"
       id="linearGradient7135"
       x1="34.858738"
       y1="228.45203"
       x2="98.686584"
       y2="228.45203"
       gradientUnits="userSpaceOnUse" />
    <linearGradient
       inkscape:collect="always"
       xlink:href="#linearGradient7068"
       id="linearGradient7169"
       x1="23.477278"
       y1="229.26675"
       x2="111.98939"
       y2="229.26675"
       gradientUnits="userSpaceOnUse"
       gradientTransform="matrix(0.99710246,0,0,1.0899682,0.19625975,-19.974597)" />
    <linearGradient
       inkscape:collect="always"
       xlink:href="#linearGradient7194"
       id="linearGradient7196"
       x1="55.282527"
       y1="196.81158"
       x2="81.529836"
       y2="196.81158"
       gradientUnits="userSpaceOnUse"
       gradientTransform="matrix(0.99529759,0,0,1.0260887,-0.350312,-6.840652)" />
    <linearGradient
       inkscape:collect="always"
       xlink:href="#linearGradient7068"
       id="linearGradient7198"
       gradientUnits="userSpaceOnUse"
       x1="34.858738"
       y1="228.45203"
       x2="98.686584"
       y2="228.45203" />
    <linearGradient
       inkscape:collect="always"
       xlink:href="#linearGradient7068"
       id="linearGradient7200"
       gradientUnits="userSpaceOnUse"
       x1="34.858738"
       y1="228.45202"
       x2="98.686586"
       y2="228.45202" />
    <filter
       inkscape:collect="always"
       style="color-interpolation-filters:sRGB"
       id="filter933">
      <feBlend
         inkscape:collect="always"
         mode="multiply"
         in2="BackgroundImage"
         id="feBlend935" />
    </filter>
  </defs>
  <sodipodi:namedview
     id="base"
     pagecolor="#ffffff"
     bordercolor="#666666"
     borderopacity="1.0"
     inkscape:pageopacity="1"
     inkscape:pageshadow="2"
     inkscape:zoom="0.70000001"
     inkscape:cx="-58.954167"
     inkscape:cy="295.10642"
     inkscape:document-units="px"
     inkscape:current-layer="g5410"
     showgrid="false"
     showguides="false"
     units="px"
     inkscape:snap-bbox="false"
     inkscape:measure-start="0,0"
     inkscape:measure-end="0,0"
     inkscape:guide-bbox="true"
     inkscape:pagecheckerboard="false"
     inkscape:snap-global="true"
     inkscape:snap-others="true"
     inkscape:snap-nodes="true"
     inkscape:window-width="1366"
     inkscape:window-height="704"
     inkscape:window-x="0"
     inkscape:window-y="27"
     inkscape:window-maximized="1"
     inkscape:object-paths="false">
    <inkscape:grid
       type="xygrid"
       id="grid26"
       color="#ffffff"
       opacity="1"
       empcolor="#5959ff"
       empopacity="0.2745098"
       visible="true" />
    <sodipodi:guide
       position="-8.0181978,25.4"
       orientation="0,1"
       id="guide52"
       inkscape:locked="false"
       inkscape:label=""
       inkscape:color="rgb(0,0,255)" />
    <sodipodi:guide
       position="122.65327,72.949403"
       orientation="1,0"
       id="guide54"
       inkscape:locked="false"
       inkscape:label=""
       inkscape:color="rgb(0,0,255)" />
    <sodipodi:guide
       position="92.793153,115.99497"
       orientation="0,1"
       id="guide60"
       inkscape:locked="false"
       inkscape:label=""
       inkscape:color="rgb(0,0,255)" />
    <sodipodi:guide
       position="13.418154,109.4241"
       orientation="1,0"
       id="guide64"
       inkscape:locked="false"
       inkscape:label=""
       inkscape:color="rgb(0,0,255)" />
    <sodipodi:guide
       position="19.777945,98.087915"
       orientation="0,1"
       id="guide85"
       inkscape:locked="false"
       inkscape:label=""
       inkscape:color="rgb(0,0,255)" />
    <sodipodi:guide
       position="35.529761,77.721353"
       orientation="1,0"
       id="guide87"
       inkscape:locked="false"
       inkscape:label=""
       inkscape:color="rgb(0,0,255)" />
    <sodipodi:guide
       position="110.06667,40.216666"
       orientation="0,1"
       id="guide89"
       inkscape:locked="false"
       inkscape:label=""
       inkscape:color="rgb(0,0,255)" />
    <sodipodi:guide
       position="92.793153,104.10148"
       orientation="1,0"
       id="guide91"
       inkscape:locked="false"
       inkscape:label=""
       inkscape:color="rgb(255,137,0)" />
    <sodipodi:guide
       position="17.639788,101.36849"
       orientation="0,1"
       id="guide101"
       inkscape:locked="false"
       inkscape:label=""
       inkscape:color="rgb(0,0,255)" />
    <sodipodi:guide
       position="33.450892,74.083332"
       orientation="1,0"
       id="guide103"
       inkscape:locked="false"
       inkscape:label=""
       inkscape:color="rgb(0,0,255)" />
    <sodipodi:guide
       position="104.775,25.400001"
       orientation="1,0"
       id="guide105"
       inkscape:locked="false"
       inkscape:label=""
       inkscape:color="rgb(0,0,255)" />
    <sodipodi:guide
       position="30.049105,89.958332"
       orientation="0,1"
       id="guide107"
       inkscape:locked="false"
       inkscape:label=""
       inkscape:color="rgb(0,0,255)" />
    <sodipodi:guide
       position="46.504897,45.508333"
       orientation="0,1"
       id="guide109"
       inkscape:locked="false"
       inkscape:label=""
       inkscape:color="rgb(0,0,255)" />
    <sodipodi:guide
       position="33.450892,78.335563"
       orientation="0,1"
       id="guide125"
       inkscape:locked="false"
       inkscape:label=""
       inkscape:color="rgb(255,137,0)" />
    <sodipodi:guide
       position="47.341517,67.704984"
       orientation="0,1"
       id="guide127"
       inkscape:locked="false"
       inkscape:label=""
       inkscape:color="rgb(255,137,0)" />
    <sodipodi:guide
       position="48.643116,74.083431"
       orientation="1,0"
       id="guide129"
       inkscape:locked="false"
       inkscape:label=""
       inkscape:color="rgb(255,137,0)" />
    <sodipodi:guide
       position="55.859362,63.07561"
       orientation="1,0"
       id="guide131"
       inkscape:locked="false"
       inkscape:label=""
       inkscape:color="rgb(255,137,0)" />
    <sodipodi:guide
       position="42.763016,70.024618"
       orientation="1,0"
       id="guide133"
       inkscape:locked="false"
       inkscape:label=""
       inkscape:color="rgb(255,137,0)" />
    <sodipodi:guide
       position="62.407535,63.07561"
       orientation="1,0"
       id="guide135"
       inkscape:locked="false"
       inkscape:label=""
       inkscape:color="rgb(255,137,0)" />
    <sodipodi:guide
       position="69.423258,49.712131"
       orientation="0,1"
       id="guide137"
       inkscape:locked="false"
       inkscape:label=""
       inkscape:color="rgb(255,137,0)" />
    <sodipodi:guide
       position="87.99849,118.53403"
       orientation="1,0"
       id="guide33"
       inkscape:locked="false"
       inkscape:label=""
       inkscape:color="rgb(0,0,255)" />
    <sodipodi:guide
       position="58.090215,101.36849"
       orientation="0,1"
       id="guide5381"
       inkscape:locked="false" />
    <sodipodi:guide
       position="29.767143,50.714392"
       orientation="0,1"
       id="guide5387"
       inkscape:locked="false" />
    <sodipodi:guide
       position="33.450891,111.78548"
       orientation="0,1"
       id="guide867"
       inkscape:locked="false" />
  </sodipodi:namedview>
  <metadata
     id="metadata5">
    <rdf:RDF>
      <cc:Work
         rdf:about="">
        <dc:format>image/svg+xml</dc:format>
        <dc:type
           rdf:resource="http://purl.org/dc/dcmitype/StillImage" />
        <dc:title />
      </cc:Work>
    </rdf:RDF>
  </metadata>
  <g
     inkscape:label="Layer 1"
     inkscape:groupmode="layer"
     id="layer1"
     transform="translate(0,-161.53332)"
     style="display:inline">
    <g
       id="g5410"
       inkscape:label="Current"
       transform="matrix(0.8772324,0,0,0.85088652,7.031774,35.891461)"
       style="opacity:1">
      <g
         id="g5430"
         inkscape:label="Dentro Maleta"
         transform="matrix(2.2605731,0,0,2.2163497,-84.6815,-281.18907)"
         style="fill:url(#linearGradient7135);fill-opacity:1;stroke:url(#linearGradient7070);stroke-opacity:1;filter:url(#filter933)">
        <path
           style="display:inline;opacity:1;fill:url(#linearGradient7198);fill-opacity:1;stroke:url(#linearGradient7200);stroke-width:1.25355792;stroke-linecap:butt;stroke-linejoin:miter;stroke-miterlimit:4;stroke-dasharray:none;stroke-opacity:1"
           d="m 57.412089,216.01668 c 1.147485,1.18842 0.550745,2.61999 7.127003,2.51873 4.833856,0 4.418515,5.31808 -0.150334,5.31808 h -7.486306 c -0.995171,11.61553 1.297342,15.47572 3.837294,16.88337 2.426754,1.69876 7.293996,1.56812 8.244524,-6.15771 1.045267,-10.26161 14.488,-13.01611 18.120692,-4.41099 0.308923,0.73177 -10.768885,-3.04315 -9.926485,8.30809 0.495643,4.89649 6.921518,6.113 10.406927,1.15968 1.813547,-3.2341 0.793485,-4.6321 3.268108,-4.42183 2.187909,-0.13603 -0.930786,8.80258 5.271852,12.0728 1.428943,0.68709 -4.955519,4.25638 -6.384099,-1.70928 -3.77052,5.67769 -16.649445,3.77637 -17.706212,-1.82568 -4.21097,5.88893 -8.111043,5.32672 -9.738932,5.35197 -13.695482,-1.0638 -11.73884,-10.79315 -12.849235,-25.25042 l -4.22318,0.0114 c -5.443464,0 -5.443464,-7.14686 0,-7.14686 l 3.764508,0.0488 c 0.0087,-11.95891 8.387836,-11.95891 8.423873,-0.75026 z"
           id="path121"
           inkscape:connector-curvature="0"
           sodipodi:nodetypes="ccccccsccccccccccccc"
           inkscape:label="lettres" />
        <path
           style="display:inline;fill:none;fill-opacity:1;stroke:#ffffff;stroke-width:0.9554711;stroke-linecap:round;stroke-linejoin:round;stroke-miterlimit:4;stroke-dasharray:none;stroke-opacity:1"
           d="m 48.458904,215.66017 1.682205,-4.01052 1.098574,1.87266 1.657055,-4.60423 1.195354,4.20558 1.57897,-2.53279 2.707727,4.84768"
           id="path5377"
           inkscape:connector-curvature="0"
           sodipodi:nodetypes="ccccccc"
           inkscape:label="montanas" />
        <path
           style="display:none;fill:none;fill-opacity:1;stroke:#ffffff;stroke-width:0.52916664;stroke-linecap:round;stroke-linejoin:miter;stroke-miterlimit:4;stroke-dasharray:none;stroke-opacity:1"
           d="m 60.584139,195.70749 c 3.355728,-6.84789 11.868271,-7.12425 15.618258,-0.0473"
           id="path5379"
           inkscape:connector-curvature="0"
           sodipodi:nodetypes="cc"
           inkscape:label="linea poignée" />
        <path
           inkscape:label="grande hola"
           sodipodi:nodetypes="cc"
           inkscape:connector-curvature="0"
           id="path5373"
           d="m 82.926652,229.66013 c -6.42669,-0.27145 -7.912338,7.55638 -5.60499,11.10274"
           style="fill:none;fill-opacity:1;stroke:#ffffff;stroke-width:0.84141827;stroke-linecap:round;stroke-linejoin:miter;stroke-miterlimit:4;stroke-dasharray:none;stroke-opacity:1" />
      </g>
    </g>
    <g
       id="g5419"
       inkscape:label="Reserva"
       style="display:none">
      <path
         inkscape:label="oiseau"
         sodipodi:nodetypes="ccc"
         inkscape:connector-curvature="0"
         id="path5371"
         d="m 84.670334,210.87638 c 3.285158,2.98958 5.175154,6.13417 6.777971,9.31067 1.160535,-4.24207 5.513665,-8.43783 9.560485,-9.81863"
         style="display:none;fill:none;stroke:#000000;stroke-width:1.12189102;stroke-linecap:round;stroke-linejoin:miter;stroke-miterlimit:4;stroke-dasharray:none;stroke-opacity:1" />
      <g
         inkscape:label="coin bas gauche"
         style="display:none"
         id="g5398">
        <path
           style="fill:none;stroke:#ffffff;stroke-width:0.52916664;stroke-linecap:round;stroke-linejoin:miter;stroke-miterlimit:4;stroke-dasharray:none;stroke-opacity:1"
           d="m 25.4,251.49165 c 0,5.29167 0,5.29167 5.291666,5.29167"
           id="path5383"
           inkscape:connector-curvature="0"
           sodipodi:nodetypes="cc" />
        <path
           style="fill:none;stroke:#ffffff;stroke-width:0.52916664;stroke-linecap:round;stroke-linejoin:miter;stroke-miterlimit:4;stroke-dasharray:none;stroke-opacity:1"
           d="m 25.4,251.49165 v -5.20606"
           id="path5389"
           inkscape:connector-curvature="0"
           sodipodi:nodetypes="cc" />
        <path
           style="fill:none;stroke:#ffffff;stroke-width:0.52916664;stroke-linecap:round;stroke-linejoin:miter;stroke-miterlimit:4;stroke-dasharray:none;stroke-opacity:1"
           d="m 30.691666,256.78332 h 5.036317"
           id="path5391"
           inkscape:connector-curvature="0"
           sodipodi:nodetypes="cc" />
      </g>
      <path
         inkscape:label="coin bas droite"
         sodipodi:nodetypes="cccc"
         inkscape:connector-curvature="0"
         id="path5393"
         d="M 97.366665,256.78332 H 104.775 c 5.29167,0 5.29167,0 5.29167,-5.29167 v -5.20606"
         style="display:none;fill:none;stroke:#ffffff;stroke-width:0.52916664;stroke-linecap:round;stroke-linejoin:miter;stroke-miterlimit:4;stroke-dasharray:none;stroke-opacity:1" />
      <path
         style="display:inline;fill:none;stroke:#ffffff;stroke-width:0.28047276;stroke-linecap:round;stroke-linejoin:miter;stroke-miterlimit:4;stroke-dasharray:none;stroke-opacity:1"
         d="m 83.72849,228.66605 c -4.125042,0.15776 -8.527391,5.35764 -6.564796,10.97866"
         id="path5375"
         inkscape:connector-curvature="0"
         sodipodi:nodetypes="cc"
         inkscape:label="pequena hola" />
      <g
         id="g5424"
         inkscape:label="Forma Maleta"
         transform="matrix(1.376226,0,0,1.376226,-23.230086,-85.580453)"
         style="display:inline;opacity:1">
        <path
           style="display:inline;fill:none;stroke:url(#linearGradient7196);stroke-width:2.9142909;stroke-linecap:butt;stroke-linejoin:miter;stroke-miterlimit:4;stroke-dasharray:none;stroke-opacity:1"
           d="m 58.885136,200.23612 c 2.69836,0.0935 -2.702206,1.24543 -2.777615,-5.46035 -0.07343,-6.53039 23.314806,-6.66055 23.253393,0.0368 -0.06115,6.66903 -4.736145,5.26758 -2.644668,5.17449 z"
           id="path99"
           inkscape:connector-curvature="0"
           sodipodi:nodetypes="csscc"
           inkscape:label="poignee maleta" />
        <path
           style="fill:none;fill-opacity:1;stroke:url(#linearGradient7169);stroke-width:6.02160835;stroke-linecap:butt;stroke-linejoin:miter;stroke-miterlimit:4;stroke-dasharray:none;stroke-opacity:1"
           d="m 39.663308,200.11684 h 50.329285 4.679189 c 9.567868,0 13.001508,8.30859 13.001508,16.18713 v 37.47983 c 0,5.76776 -3.15554,8.56883 -8.431834,8.59292 l -62.430129,0.28504 c -5.276333,0 -8.576433,-2.70774 -8.576433,-8.4755 v -37.89949 c 0,-9.53899 2.6324,-15.92666 11.428414,-16.16993 z"
           id="path111"
           inkscape:connector-curvature="0"
           sodipodi:nodetypes="cccccscssc"
           inkscape:label="base maleta" />
      </g>
    </g>
  </g>
</svg>
